{
  "libraries": [
    {
      "ideaName": "Maven: junit:junit:4.13.1",
      "unresolved": false,
      "groupId": "junit",
      "artifactId": "junit",
      "version": "4.13.1",
      "baseVersion": "4.13.1",
      "type": "jar",
      "optional": false,
      "scope": "test"
    },
    {
      "ideaName": "Maven: org.hamcrest:hamcrest-core:1.3",
      "unresolved": false,
      "groupId": "org.hamcrest",
      "artifactId": "hamcrest-core",
      "version": "1.3",
      "baseVersion": "1.3",
      "type": "jar",
      "optional": false,
      "scope": "test"
    }
  ]
}