{
  "libraries": [
    {
      "name": "Maven: junit:junit:4.13.1",
      "roots": [
        "jar://$MAVEN_REPOSITORY$/junit/junit/4.13.1/junit-4.13.1.jar!/"
      ]
    },
    {
      "name": "Maven: org.hamcrest:hamcrest-core:1.3",
      "roots": [
        "jar://$MAVEN_REPOSITORY$/org/hamcrest/hamcrest-core/1.3/hamcrest-core-1.3.jar!/"
      ]
    }
  ]
}